…
<img src="../assets/2017-11-16-class23/unnamed-chunk-17-1.png" title="plot of chunk unnamed-chunk-17" alt="plot of chunk unnamed-chunk-17" width="100%" />


{% highlight r %}
mutate(nodes, diff = abs(eigen - eigen_co)) %>%
  arrange(desc(diff)) %>%
  select(id, eigen, eigen_co) %>%
  print(n = 25)
{% endhighlight %}



{% highlight text %}
## # A tibble: 516 x 3
##                                       id     eigen  eigen_co
##                                    <chr>     <dbl>     <dbl>
##  1             2010_United_States_Census 0.3505215 0.9111282
##  2                                Amtrak 0.3515536 0.9077685
##  3             Humid_subtropical_climate 0.2739453 0.8119748
##  4  National_Register_of_Historic_Places 0.1524895 0.6408039
##  5          Geographic_coordinate_system 0.2512314 0.7264585
##  6           United_States_Census_Bureau 0.3637797 0.8349717
##  7                   American_Revolution 0.3924372 0.8482810
##  8            American_Revolutionary_War 0.4478144 0.8854673
##  9             Commonwealth_(U.S._state) 0.2037917 0.6383459
## 10    K%C3%B6ppen_climate_classification 0.1284063 0.5296201
## 11           Race_(United_States_Census) 0.1864423 0.5848264
## 12      Independent_city_(United_States) 0.2000970 0.5911974
## 13           Atlantic_Seaboard_fall_line 0.1065935 0.4687387
## 14              National_Football_League 0.1773334 0.5335557
## 15                       Greyhound_Lines 0.1350569 0.4882485
## 16         American_Broadcasting_Company 0.1853293 0.5351120
## 17           Public_Broadcasting_Service 0.1264675 0.4672426
## 18                                   NBC 0.2012074 0.5418885
## 19                             Fall_line 0.1284453 0.4677509
## 20                        Asian_American 0.2635537 0.5967182
## 21 Native_Americans_in_the_United_States 0.5063734 0.8391105
## 22              Fox_Broadcasting_Company 0.1862610 0.5181195
## 23                   Jamestown,_Virginia 0.3535163 0.6831185
## 24             Virginia_General_Assembly 0.2640497 0.5892099
## 25                     George_Washington 0.2831768 0.6051181
## # ... with 491 more rows
…
