…
Our object of study will be the function `group_by`, a **dplyr**
verb that seemingly does nothing (or very little) to a dataset.
Here, we group the flights data by month:


{% highlight r %}
group_by(flights, month)
{% endhighlight %}



{% highlight text %}
## # A tibble: 327,346 x 19
## # Groups:   month [12]
##     year month   day dep_time sched_dep_time dep_delay arr_time
##    <int> <int> <int>    <int>          <int>     <int>    <int>
##  1  2013     1     1      517            515         2      830
##  2  2013     1     1      533            529         4      850
##  3  2013     1     1      542            540         2      923
##  4  2013     1     1      544            545        -1     1004
##  5  2013     1     1      554            600        -6      812
##  6  2013     1     1      554            558        -4      740
##  7  2013     1     1      555            600        -5      913
##  8  2013     1     1      557            600        -3      709
##  9  2013     1     1      557            600        -3      838
## 10  2013     1     1      558            600        -2      753
## # ... with 327,336 more rows, and 12 more variables: sched_arr_time <int>,
## #   arr_delay <int>, carrier <chr>, flight <int>, tailnum <chr>,
## #   origin <chr>, dest <chr>, air_time <int>, distance <int>, hour <int>,
## #   minute <int>, time_hour <dttm>
…
{% highlight r %}
flights %>%
  group_by(origin, month) %>%
  summarize(avg_dep_delay = mean(dep_delay),
            avg_arr_delay = mean(arr_delay),
            n = n())
{% endhighlight %}



{% highlight text %}
## # A tibble: 36 x 5
## # Groups:   origin [?]
##    origin month avg_dep_delay avg_arr_delay     n
##     <chr> <int>         <dbl>         <dbl> <int>
##  1    EWR     1     14.855657     12.816556  9616
##  2    EWR     2     12.995452      8.775160  8575
##  3    EWR     3     18.050624     10.600799 10015
##  4    EWR     4     17.255987     14.143388 10231
##  5    EWR     5     15.228768      5.381928 10303
##  6    EWR     6     22.338537     16.863599  9736
##  7    EWR     7     21.858977     15.460201 10126
##  8    EWR     8     13.408123      6.712342 10144
##  9    EWR     9      7.142170     -4.729972  9362
## 10    EWR    10      8.636918      2.604737 10006
## # ... with 26 more rows
…
{% highlight r %}
flights %>%
  group_by(origin, month) %>%
  summarize(avg_dep_delay = mean(dep_delay),
            avg_arr_delay = mean(arr_delay),
            n = n()) %>%
  ungroup()
{% endhighlight %}



{% highlight text %}
## # A tibble: 36 x 5
##    origin month avg_dep_delay avg_arr_delay     n
##     <chr> <int>         <dbl>         <dbl> <int>
##  1    EWR     1     14.855657     12.816556  9616
##  2    EWR     2     12.995452      8.775160  8575
##  3    EWR     3     18.050624     10.600799 10015
##  4    EWR     4     17.255987     14.143388 10231
##  5    EWR     5     15.228768      5.381928 10303
##  6    EWR     6     22.338537     16.863599  9736
##  7    EWR     7     21.858977     15.460201 10126
##  8    EWR     8     13.408123      6.712342 10144
##  9    EWR     9      7.142170     -4.729972  9362
## 10    EWR    10      8.636918      2.604737 10006
## # ... with 26 more rows
…
{% highlight r %}
flights %>%
  group_by(year, month, day) %>%
  filter(rank(desc(arr_delay)) <= 3) %>%
  select(year, month, day, arr_delay)
{% endhighlight %}



{% highlight text %}
## # A tibble: 1,085 x 4
## # Groups:   year, month, day [365]
##     year month   day arr_delay
##    <int> <int> <int>     <int>
##  1  2013     1     1       851
##  2  2013     1     1       338
##  3  2013     1     1       456
##  4  2013     1     2       323
##  5  2013     1     2       368
##  6  2013     1     2       359
##  7  2013     1     3       270
##  8  2013     1     3       257
##  9  2013     1     3       285
## 10  2013     1     4       162
## # ... with 1,075 more rows
…
{% highlight r %}
flights %>%
  group_by(origin, dest) %>%
  summarize(dep_delay_total = sum(dep_delay)) %>%
  mutate(dep_delay_prop = dep_delay_total / sum(dep_delay_total) * 100) %>%
  arrange(desc(dep_delay_prop))
{% endhighlight %}



{% highlight text %}
## # A tibble: 223 x 4
## # Groups:   origin [3]
##    origin  dest dep_delay_total dep_delay_prop
##     <chr> <chr>           <int>          <dbl>
##  1    LGA   ATL          114050      10.962288
##  2    LGA   ORD           90553       8.703797
##  3    JFK   SFO           96032       7.322174
##  4    JFK   LAX           94355       7.194308
##  5    LGA   CLT           53226       5.115991
##  6    JFK   BOS           66763       5.090494
##  7    LGA   FLL           50516       4.855510
##  8    EWR   ORD           84707       4.818450
##  9    LGA   DEN           47741       4.588782
## 10    LGA   MCO           46028       4.424131
## # ... with 213 more rows
…
