…
With **term_list_to_df**, we can extract the tokens from these three
pages.


{% highlight r %}
token_data <- term_list_to_df(tokenize_words(df$text))
token_data
{% endhighlight %}



{% highlight text %}
## # A tibble: 29,737 x 2
##       id   token
##    <int>   <chr>
##  1     1   lagos
##  2     1 ˈleɪɡɒs
##  3     1      11
##  4     1  yoruba
##  5     1     èkó
##  6     1      is
##  7     1       a
##  8     1    city
##  9     1      in
## 10     1     the
## # ... with 29,727 more rows
…
{% highlight r %}
library(tidytext)
data(stop_words)
stop_words
{% endhighlight %}



{% highlight text %}
## # A tibble: 1,149 x 2
##           word lexicon
##          <chr>   <chr>
##  1           a   SMART
##  2         a's   SMART
##  3        able   SMART
##  4       about   SMART
##  5       above   SMART
##  6   according   SMART
##  7 accordingly   SMART
##  8      across   SMART
##  9    actually   SMART
## 10       after   SMART
## # ... with 1,139 more rows
…
