…
{% highlight r %}
left_join(flights_sml, airlines, by = "carrier")
{% endhighlight %}



{% highlight text %}
## # A tibble: 327,346 x 7
##     year month   day  hour tailnum carrier                     name
##    <int> <int> <int> <int>   <chr>   <chr>                    <chr>
##  1  2013     1     1     5  N14228      UA    United Air Lines Inc.
##  2  2013     1     1     5  N24211      UA    United Air Lines Inc.
##  3  2013     1     1     5  N619AA      AA   American Airlines Inc.
##  4  2013     1     1     5  N804JB      B6          JetBlue Airways
##  5  2013     1     1     6  N668DN      DL     Delta Air Lines Inc.
##  6  2013     1     1     5  N39463      UA    United Air Lines Inc.
##  7  2013     1     1     6  N516JB      B6          JetBlue Airways
##  8  2013     1     1     6  N829AS      EV ExpressJet Airlines Inc.
##  9  2013     1     1     6  N593JB      B6          JetBlue Airways
## 10  2013     1     1     6  N3ALAA      AA   American Airlines Inc.
## # ... with 327,336 more rows
…
{% highlight r %}
flights_sml <- flights %>% 
  select(year:day, hour, origin, dest)
left_join(flights_sml, airports, by = c("dest" = "faa"))
{% endhighlight %}



{% highlight text %}
## # A tibble: 327,346 x 13
##     year month   day  hour origin  dest                            name
##    <int> <int> <int> <int>  <chr> <chr>                           <chr>
##  1  2013     1     1     5    EWR   IAH    George Bush Intercontinental
##  2  2013     1     1     5    LGA   IAH    George Bush Intercontinental
##  3  2013     1     1     5    JFK   MIA                      Miami Intl
##  4  2013     1     1     5    JFK   BQN                            <NA>
##  5  2013     1     1     6    LGA   ATL Hartsfield Jackson Atlanta Intl
##  6  2013     1     1     5    EWR   ORD              Chicago Ohare Intl
##  7  2013     1     1     6    EWR   FLL  Fort Lauderdale Hollywood Intl
##  8  2013     1     1     6    LGA   IAD          Washington Dulles Intl
##  9  2013     1     1     6    JFK   MCO                    Orlando Intl
## 10  2013     1     1     6    LGA   ORD              Chicago Ohare Intl
## # ... with 327,336 more rows, and 6 more variables: lat <dbl>, lon <dbl>,
## #   alt <int>, tz <int>, dst <chr>, tzone <chr>
…
{% highlight r %}
flights_sml <- flights %>% 
  select(year:day, hour, origin, dest)

inner_join(flights_sml, weather,
          by = c("year", "month", "day", "hour", "origin"))
{% endhighlight %}



{% highlight text %}
## # A tibble: 326,160 x 16
##     year month   day  hour origin  dest  temp  dewp humid wind_dir
##    <int> <int> <int> <int>  <chr> <chr> <dbl> <dbl> <dbl>    <int>
##  1  2013     1     1     6    LGA   ATL 39.92 26.06 57.33      260
##  2  2013     1     1     6    EWR   FLL 39.02 26.06 59.37      270
##  3  2013     1     1     6    LGA   IAD 39.92 26.06 57.33      260
##  4  2013     1     1     6    JFK   MCO 39.02 26.06 59.37      260
##  5  2013     1     1     6    LGA   ORD 39.92 26.06 57.33      260
##  6  2013     1     1     6    JFK   PBI 39.02 26.06 59.37      260
##  7  2013     1     1     6    JFK   TPA 39.02 26.06 59.37      260
##  8  2013     1     1     6    JFK   LAX 39.02 26.06 59.37      260
##  9  2013     1     1     6    EWR   SFO 39.02 26.06 59.37      270
## 10  2013     1     1     6    LGA   DFW 39.92 26.06 57.33      260
## # ... with 326,150 more rows, and 6 more variables: wind_speed <dbl>,
## #   wind_gust <dbl>, precip <dbl>, pressure <dbl>, visib <dbl>,
## #   time_hour <dttm>
…
{% highlight r %}
flights_sml <- flights %>% 
  select(year:day, tailnum)

inner_join(flights_sml, planes,
          by = c("tailnum"))
{% endhighlight %}



{% highlight text %}
## # A tibble: 279,017 x 12
##    year.x month   day tailnum year.y                    type
##     <int> <int> <int>   <chr>  <int>                   <chr>
##  1   2013     1     1  N14228   1999 Fixed wing multi engine
##  2   2013     1     1  N24211   1998 Fixed wing multi engine
##  3   2013     1     1  N619AA   1990 Fixed wing multi engine
##  4   2013     1     1  N804JB   2012 Fixed wing multi engine
##  5   2013     1     1  N668DN   1991 Fixed wing multi engine
##  6   2013     1     1  N39463   2012 Fixed wing multi engine
##  7   2013     1     1  N516JB   2000 Fixed wing multi engine
##  8   2013     1     1  N829AS   1998 Fixed wing multi engine
##  9   2013     1     1  N593JB   2004 Fixed wing multi engine
## 10   2013     1     1  N793JB   2011 Fixed wing multi engine
## # ... with 279,007 more rows, and 6 more variables: manufacturer <chr>,
## #   model <chr>, engines <int>, seats <int>, speed <int>, engine <chr>
…
This behavior is fine, but it is better to manually describe
what the suffix should be:


{% highlight r %}
inner_join(flights_sml, planes,
          by = c("tailnum"),
          suffix = c("", "_plane"))
{% endhighlight %}



{% highlight text %}
## # A tibble: 279,017 x 12
##     year month   day tailnum year_plane                    type
##    <int> <int> <int>   <chr>      <int>                   <chr>
##  1  2013     1     1  N14228       1999 Fixed wing multi engine
##  2  2013     1     1  N24211       1998 Fixed wing multi engine
##  3  2013     1     1  N619AA       1990 Fixed wing multi engine
##  4  2013     1     1  N804JB       2012 Fixed wing multi engine
##  5  2013     1     1  N668DN       1991 Fixed wing multi engine
##  6  2013     1     1  N39463       2012 Fixed wing multi engine
##  7  2013     1     1  N516JB       2000 Fixed wing multi engine
##  8  2013     1     1  N829AS       1998 Fixed wing multi engine
##  9  2013     1     1  N593JB       2004 Fixed wing multi engine
## 10  2013     1     1  N793JB       2011 Fixed wing multi engine
## # ... with 279,007 more rows, and 6 more variables: manufacturer <chr>,
## #   model <chr>, engines <int>, seats <int>, speed <int>, engine <chr>
…
