…
The first function we will look at is `stri_sub` that takes
a substring of each input by position; for example the following
finds the first three characters of every string in the data
set of words:


{% highlight r %}
mutate(df_words, chars = stri_sub(words, 1, 3))
{% endhighlight %}



{% highlight text %}
## # A tibble: 980 x 2
##       words chars
##       <chr> <chr>
##  1        a     a
##  2     able   abl
##  3    about   abo
##  4 absolute   abs
##  5   accept   acc
##  6  account   acc
##  7  achieve   ach
##  8   across   acr
##  9      act   act
## 10   active   act
## # ... with 970 more rows
…
Notice that R silently ignores the fact that the first word
that has only one letter (it is returned as-is).
We can use negative values to begin at the end of the string
(-1 is the last character, -2 the second to last and so on).
So the last two characters can be grabbed with this:


{% highlight r %}
mutate(df_words, chars = stri_sub(words, -2, -1))
{% endhighlight %}



{% highlight text %}
## # A tibble: 980 x 2
##       words chars
##       <chr> <chr>
##  1        a     a
##  2     able    le
##  3    about    ut
##  4 absolute    te
##  5   accept    pt
##  6  account    nt
##  7  achieve    ve
##  8   across    ss
##  9      act    ct
## 10   active    ve
## # ... with 970 more rows
…
## stri_length

The function `stri_length` describes how many characters are
in a string:


{% highlight r %}
mutate(df_words, num_char = stri_length(words))
{% endhighlight %}



{% highlight text %}
## # A tibble: 980 x 2
##       words num_char
##       <chr>    <int>
##  1        a        1
##  2     able        4
##  3    about        5
##  4 absolute        8
##  5   accept        6
##  6  account        7
##  7  achieve        7
##  8   across        6
##  9      act        3
## 10   active        6
## # ... with 970 more rows
…
## stri_trans_toupper

And the functions `stri_trans_toupper` and `stri_trans_tolower` do exactly
as they describe:


{% highlight r %}
mutate(df_words, up = stri_trans_toupper(words), down = stri_trans_tolower(words))
{% endhighlight %}



{% highlight text %}
## # A tibble: 980 x 3
##       words       up     down
##       <chr>    <chr>    <chr>
##  1        a        A        a
##  2     able     ABLE     able
##  3    about    ABOUT    about
##  4 absolute ABSOLUTE absolute
##  5   accept   ACCEPT   accept
##  6  account  ACCOUNT  account
##  7  achieve  ACHIEVE  achieve
##  8   across   ACROSS   across
##  9      act      ACT      act
## 10   active   ACTIVE   active
## # ... with 970 more rows
…
I took a substring of the first column to make it fit on
the page.

## stri_count


{% highlight r %}
temp
{% endhighlight %}



{% highlight text %}
## # A tibble: 720 x 4
##                    sent    th    sh    ch
##                   <chr> <int> <int> <int>
##  1 The birch canoe slid     2     0     1
##  2 Glue the sheet to th     2     1     0
##  3 It's easy to tell th     2     0     0
##  4 These days a chicken     0     1     1
##  5 Rice is often served     0     0     0
##  6 The juice of lemons      0     0     1
##  7 The box was thrown b     2     0     0
##  8 The hogs were fed ch     0     0     1
##  9 Four hours of steady     0     0     0
## 10 Large size in stocki     0     0     0
## # ... with 710 more rows
…
## stri_replace_all

The function `stri_replace_all` replaces one pattern with
another. Perhaps we want to replace all of those borning
"e"'s with "ë":


{% highlight r %}
mutate(df_sent, sent = stri_replace_all(sent, "ë", fixed = "e"))
{% endhighlight %}



{% highlight text %}
## # A tibble: 720 x 1
##                                           sent
##                                          <chr>
##  1  Thë birch canoë slid on thë smooth planks.
##  2 Gluë thë shëët to thë dark bluë background.
##  3      It's ëasy to tëll thë dëpth of a wëll.
##  4    Thësë days a chickën lëg is a rarë dish.
##  5        Ricë is oftën sërvëd in round bowls.
##  6       Thë juicë of lëmons makës finë punch.
##  7 Thë box was thrown bësidë thë parkëd truck.
##  8 Thë hogs wërë fëd choppëd corn and garbagë.
##  9         Four hours of stëady work facëd us.
## 10    Largë sizë in stockings is hard to sëll.
## # ... with 710 more rows
…
## patterns

So, for instance the following finds any time that we have
the letters "w" and "s" separated by any third character.
Can you find where this occurs in each line?


{% highlight r %}
filter(df_sent, stri_detect(sent, regex = "w.s"))
{% endhighlight %}



{% highlight text %}
## # A tibble: 81 x 1
##                                             sent
##                                            <chr>
##  1          Rice is often served in round bowls.
##  2   The box was thrown beside the parked truck.
##  3          The boy was there when the sun rose.
##  4 The fish twisted and turned on the bent hook.
##  5       The swan dive was far short of perfect.
##  6 The beauty of the view stunned the young boy.
##  7          Her purse was full of useless trash.
##  8   The wrist was badly strained and hung limp.
##  9     The meal was cooked before the bell rang.
## 10    The ship was torn apart on the sharp reef.
## # ... with 71 more rows
…
