…
## Baseball data


{% highlight r %}
mlb_nodes <- read_csv("https://statsmaths.github.io/stat_data/mlb_teams_nodes.csv")
mlb_edges <- read_csv("https://statsmaths.github.io/stat_data/mlb_teams_edges.csv")
mlb_edges
{% endhighlight %}



{% highlight text %}
## # A tibble: 51,535 x 4
##       id id_out  year count
##    <chr>  <chr> <int> <int>
##  1   MAN    BRA  1872     1
##  2   MAN    OLY  1872     8
##  3   ECK    BRA  1872     1
##  4   ECK    CNA  1872     5
##  5   ECK    CFC  1872     1
##  6   ECK    KEK  1872     2
##  7   ECK    NNA  1872     3
##  8   ECK    TRO  1872    12
##  9   ECK    OLY  1872     1
## 10   CFC    BLC  1872     1
## # ... with 51,525 more rows
…
<img src="../assets/2017-11-21-class24/unnamed-chunk-3-1.png" title="plot of chunk unnamed-chunk-3" alt="plot of chunk unnamed-chunk-3" width="100%" />


{% highlight r %}
college_nodes <- read_csv("https://statsmaths.github.io/stat_data/mlb_college_nodes.csv")
college_edges <- read_csv("https://statsmaths.github.io/stat_data/mlb_college_edges.csv")
college_edges
{% endhighlight %}



{% highlight text %}
## # A tibble: 35,612 x 4
##           id id_out  year count
##        <chr>  <chr> <int> <int>
##  1   fordham    TRO  1871     1
##  2 villanova    ROK  1871     2
##  3 dartmouth    ECK  1872     1
##  4   fordham    TRO  1872     1
##  5 villanova    PNA  1872     1
##  6   fordham    NNA  1873     1
##  7 villanova    PWS  1873     1
##  8      yale    RES  1873     1
##  9 villanova    PWS  1874     1
## 10      yale    NHV  1875     2
## # ... with 35,602 more rows
…
<img src="../assets/2017-11-21-class24/unnamed-chunk-5-1.png" title="plot of chunk unnamed-chunk-5" alt="plot of chunk unnamed-chunk-5" width="100%" />

## RFID Tags


{% highlight r %}
rfid_nodes <- read_csv("https://statsmaths.github.io/stat_data/rfid_nodes.csv")
rfid_edges <- read_csv("https://statsmaths.github.io/stat_data/rfid_edges.csv")
rfid_edges
{% endhighlight %}



{% highlight text %}
## # A tibble: 32,424 x 3
##       id id_out  time
##    <int>  <int> <int>
##  1    15     31   140
##  2    15     22   160
##  3    15     16   500
##  4    15     16   520
##  5    16     22   560
##  6    16     22   580
##  7    16     22   600
##  8    16     22   620
##  9    16     22   680
## 10    11     16   680
## # ... with 32,414 more rows
…
