…
Let's grab only those flights that left after 11pm (2300):


{% highlight r %}
filter(flights, dep_time > 2300)
{% endhighlight %}



{% highlight text %}
## # A tibble: 2,573 x 19
##     year month   day dep_time sched_dep_time dep_delay arr_time
##    <int> <int> <int>    <int>          <int>     <int>    <int>
##  1  2013     1     1     2302           2200        62     2342
##  2  2013     1     1     2306           2245        21       28
##  3  2013     1     1     2307           2245        22       32
##  4  2013     1     1     2310           2255        15       24
##  5  2013     1     1     2312           2000       192       21
##  6  2013     1     1     2323           2200        83       22
##  7  2013     1     1     2326           2130       116      131
##  8  2013     1     1     2327           2250        37       32
##  9  2013     1     1     2343           1724       379      314
## 10  2013     1     1     2353           2359        -6      425
## # ... with 2,563 more rows, and 12 more variables: sched_arr_time <int>,
## #   arr_delay <int>, carrier <chr>, flight <int>, tailnum <chr>,
## #   origin <chr>, dest <chr>, air_time <int>, distance <int>, hour <int>,
## #   minute <int>, time_hour <dttm>
…
Notice that the result now has only 2,581 rows. However, the original
dataset has not been changed. If we want to test for whether a
variable is exactly equal to another value we use two equal signs
`==`. Here are all the flights that departed on Christmas Day:


{% highlight r %}
filter(flights, month == 11, day == 25)
{% endhighlight %}



{% highlight text %}
## # A tibble: 936 x 19
##     year month   day dep_time sched_dep_time dep_delay arr_time
##    <int> <int> <int>    <int>          <int>     <int>    <int>
##  1  2013    11    25        5           2359         6      436
##  2  2013    11    25      508            500         8      647
##  3  2013    11    25      513            515        -2      801
##  4  2013    11    25      537            540        -3      827
##  5  2013    11    25      542            545        -3      845
##  6  2013    11    25      550            600       -10      843
##  7  2013    11    25      550            600       -10      647
##  8  2013    11    25      551            550         1     1019
##  9  2013    11    25      553            600        -7      657
## 10  2013    11    25      553            600        -7      826
## # ... with 926 more rows, and 12 more variables: sched_arr_time <int>,
## #   arr_delay <int>, carrier <chr>, flight <int>, tailnum <chr>,
## #   origin <chr>, dest <chr>, air_time <int>, distance <int>, hour <int>,
## #   minute <int>, time_hour <dttm>
…
In order to filter flights that took off between noon (1200) and
3pm (1500), that is easy with two logical statements (notice the
`>=` and `<=` for greater then and equal to and less than or
equal to):


{% highlight r %}
filter(flights, dep_time >= 1200, dep_time <= 1500)
{% endhighlight %}



{% highlight text %}
## # A tibble: 53,744 x 19
##     year month   day dep_time sched_dep_time dep_delay arr_time
##    <int> <int> <int>    <int>          <int>     <int>    <int>
##  1  2013     1     1     1200           1200         0     1408
##  2  2013     1     1     1202           1207        -5     1318
##  3  2013     1     1     1202           1159         3     1645
##  4  2013     1     1     1203           1205        -2     1501
##  5  2013     1     1     1203           1200         3     1519
##  6  2013     1     1     1204           1200         4     1500
##  7  2013     1     1     1205           1200         5     1503
##  8  2013     1     1     1206           1209        -3     1325
##  9  2013     1     1     1208           1158        10     1540
## 10  2013     1     1     1211           1215        -4     1423
## # ... with 53,734 more rows, and 12 more variables: sched_arr_time <int>,
## #   arr_delay <int>, carrier <chr>, flight <int>, tailnum <chr>,
## #   origin <chr>, dest <chr>, air_time <int>, distance <int>, hour <int>,
## #   minute <int>, time_hour <dttm>
…
How might we get flights that left between 11pm and 4am? Here
we need to say that either one of two conditions are true: the
flight left after 11pm OR before 4am. To encode this we use
a vertical bar `|` to stand in for the statement OR:


{% highlight r %}
filter(flights, dep_time >= 2300 | dep_time <= 400)
{% endhighlight %}



{% highlight text %}
## # A tibble: 3,808 x 19
##     year month   day dep_time sched_dep_time dep_delay arr_time
##    <int> <int> <int>    <int>          <int>     <int>    <int>
##  1  2013     1     1     2302           2200        62     2342
##  2  2013     1     1     2306           2245        21       28
##  3  2013     1     1     2307           2245        22       32
##  4  2013     1     1     2310           2255        15       24
##  5  2013     1     1     2312           2000       192       21
##  6  2013     1     1     2323           2200        83       22
##  7  2013     1     1     2326           2130       116      131
##  8  2013     1     1     2327           2250        37       32
##  9  2013     1     1     2343           1724       379      314
## 10  2013     1     1     2353           2359        -6      425
## # ... with 3,798 more rows, and 12 more variables: sched_arr_time <int>,
## #   arr_delay <int>, carrier <chr>, flight <int>, tailnum <chr>,
## #   origin <chr>, dest <chr>, air_time <int>, distance <int>, hour <int>,
## #   minute <int>, time_hour <dttm>
…
{% highlight r %}
filter(flights, dest %in% c("BOS", "PVD", "MHT"))
{% endhighlight %}



{% highlight text %}
## # A tibble: 16,312 x 19
##     year month   day dep_time sched_dep_time dep_delay arr_time
##    <int> <int> <int>    <int>          <int>     <int>    <int>
##  1  2013     1     1      559            559         0      702
##  2  2013     1     1      639            640        -1      739
##  3  2013     1     1      801            805        -4      900
##  4  2013     1     1      803            810        -7      903
##  5  2013     1     1      820            830       -10      940
##  6  2013     1     1      923            919         4     1026
##  7  2013     1     1      957            733       144     1056
##  8  2013     1     1     1033           1017        16     1130
##  9  2013     1     1     1154           1200        -6     1253
## 10  2013     1     1     1237           1245        -8     1340
## # ... with 16,302 more rows, and 12 more variables: sched_arr_time <int>,
## #   arr_delay <int>, carrier <chr>, flight <int>, tailnum <chr>,
## #   origin <chr>, dest <chr>, air_time <int>, distance <int>, hour <int>,
## #   minute <int>, time_hour <dttm>
…
### Arranging rows

Next, we will see how to reorder to rows in a data frame using the
`arrange` function. Like all verbs it takes the data frame as its
first argument. Other arguments specify which variables to sort by:


{% highlight r %}
arrange(flights, dep_time)
{% endhighlight %}



{% highlight text %}
## # A tibble: 327,346 x 19
##     year month   day dep_time sched_dep_time dep_delay arr_time
##    <int> <int> <int>    <int>          <int>     <int>    <int>
##  1  2013     1    13        1           2249        72      108
##  2  2013     1    31        1           2100       181      124
##  3  2013    11    13        1           2359         2      442
##  4  2013    12    16        1           2359         2      447
##  5  2013    12    20        1           2359         2      430
##  6  2013    12    26        1           2359         2      437
##  7  2013    12    30        1           2359         2      441
##  8  2013     2    11        1           2100       181      111
##  9  2013     2    24        1           2245        76      121
## 10  2013     3     8        1           2355         6      431
## # ... with 327,336 more rows, and 12 more variables: sched_arr_time <int>,
## #   arr_delay <int>, carrier <chr>, flight <int>, tailnum <chr>,
## #   origin <chr>, dest <chr>, air_time <int>, distance <int>, hour <int>,
## #   minute <int>, time_hour <dttm>
{% endhighlight %}

Other variables break ties in earlier variables:


{% highlight r %}
arrange(flights, dep_time, arr_time)
{% endhighlight %}



{% highlight text %}
## # A tibble: 327,346 x 19
##     year month   day dep_time sched_dep_time dep_delay arr_time
##    <int> <int> <int>    <int>          <int>     <int>    <int>
##  1  2013     6    24        1           1950       251      105
##  2  2013     4    10        1           1930       271      106
##  3  2013     1    13        1           2249        72      108
##  4  2013     2    11        1           2100       181      111
##  5  2013     3    19        1           2250        71      120
##  6  2013     2    24        1           2245        76      121
##  7  2013     1    31        1           2100       181      124
##  8  2013     7    22        1           2305        56      135
##  9  2013     5    22        1           1935       266      154
## 10  2013     7     1        1           2029       212      236
## # ... with 327,336 more rows, and 12 more variables: sched_arr_time <int>,
## #   arr_delay <int>, carrier <chr>, flight <int>, tailnum <chr>,
## #   origin <chr>, dest <chr>, air_time <int>, distance <int>, hour <int>,
## #   minute <int>, time_hour <dttm>
{% endhighlight %}

To sort a variable in reverse order, wrap it in the `desc` function:


{% highlight r %}
arrange(flights, desc(dep_time), arr_time)
{% endhighlight %}



{% highlight text %}
## # A tibble: 327,346 x 19
##     year month   day dep_time sched_dep_time dep_delay arr_time
##    <int> <int> <int>    <int>          <int>     <int>    <int>
##  1  2013     7    17     2400           2142       138       54
##  2  2013    12     9     2400           2250        70       59
##  3  2013     7    13     2400           2245        75      101
##  4  2013     6    17     2400           2145       135      102
##  5  2013     7     7     2400           1950       250      107
##  6  2013     8    10     2400           2245        75      110
##  7  2013     9    12     2400           2000       240      203
##  8  2013     7    13     2400           2155       125      225
##  9  2013     7    28     2400           2059       181      247
## 10  2013     2    11     2400           2135       145      251
## # ... with 327,336 more rows, and 12 more variables: sched_arr_time <int>,
## #   arr_delay <int>, carrier <chr>, flight <int>, tailnum <chr>,
## #   origin <chr>, dest <chr>, air_time <int>, distance <int>, hour <int>,
## #   minute <int>, time_hour <dttm>
…
With larger datasets (or when producing reports) it is sometimes
useful to select just a subset of the columns in the original
dataset. To do this, we use the `select` function. The first input
is the data set, with other arguments being variables we want to
look at:


{% highlight r %}
select(flights, dep_time, origin, dest)
{% endhighlight %}



{% highlight text %}
## # A tibble: 327,346 x 3
##    dep_time origin  dest
##       <int>  <chr> <chr>
##  1      517    EWR   IAH
##  2      533    LGA   IAH
##  3      542    JFK   MIA
##  4      544    JFK   BQN
##  5      554    LGA   ATL
##  6      554    EWR   ORD
##  7      555    EWR   FLL
##  8      557    LGA   IAD
##  9      557    JFK   MCO
## 10      558    LGA   ORD
## # ... with 327,336 more rows
…
Lets calculate the average speed of the flight. The mutate function
takes the data frame as its first argument followed by named arguments
describing the new variables:


{% highlight r %}
mutate(flights_sml, speed = distance / air_time * 60)
{% endhighlight %}



{% highlight text %}
## # A tibble: 327,346 x 8
##     year month   day arr_delay dep_delay distance air_time    speed
##    <int> <int> <int>     <int>     <int>    <int>    <int>    <dbl>
##  1  2013     1     1        11         2     1400      227 370.0441
##  2  2013     1     1        20         4     1416      227 374.2731
##  3  2013     1     1        33         2     1089      160 408.3750
##  4  2013     1     1       -18        -1     1576      183 516.7213
##  5  2013     1     1       -25        -6      762      116 394.1379
##  6  2013     1     1        12        -4      719      150 287.6000
##  7  2013     1     1        19        -5     1065      158 404.4304
##  8  2013     1     1       -14        -3      229       53 259.2453
##  9  2013     1     1        -8        -3      944      140 404.5714
## 10  2013     1     1         8        -2      733      138 318.6957
## # ... with 327,336 more rows
{% endhighlight %}

Similarly, we can figure out how much time was lost or gained
between the departure delay and arrival delay:


{% highlight r %}
mutate(flights_sml, gain = arr_delay - dep_delay)
{% endhighlight %}



{% highlight text %}
## # A tibble: 327,346 x 8
##     year month   day arr_delay dep_delay distance air_time  gain
##    <int> <int> <int>     <int>     <int>    <int>    <int> <int>
##  1  2013     1     1        11         2     1400      227     9
##  2  2013     1     1        20         4     1416      227    16
##  3  2013     1     1        33         2     1089      160    31
##  4  2013     1     1       -18        -1     1576      183   -17
##  5  2013     1     1       -25        -6      762      116   -19
##  6  2013     1     1        12        -4      719      150    16
##  7  2013     1     1        19        -5     1065      158    24
##  8  2013     1     1       -14        -3      229       53   -11
##  9  2013     1     1        -8        -3      944      140    -5
## 10  2013     1     1         8        -2      733      138    10
## # ... with 327,336 more rows
…
{% highlight r %}
flights_best_gain_jfk <- flights %>%
  filter(origin == "JFK") %>%
  mutate(gain = arr_delay - dep_delay) %>%
  filter(gain > 10) %>%
  arrange(desc(gain)) %>%
  select(year, month, day, dep_time, dest, gain)
flights_best_gain_jfk
{% endhighlight %}



{% highlight text %}
## # A tibble: 15,696 x 6
##     year month   day dep_time  dest  gain
##    <int> <int> <int>    <int> <chr> <int>
##  1  2013    11     1      658   LAX   196
##  2  2013     7    10     1916   SFO   161
##  3  2013     7    22     1626   CMH   150
##  4  2013     2    16     1738   CLT   146
##  5  2013     7    10     1623   SFO   146
##  6  2013     7    28     1815   BUR   146
##  7  2013     6    30     1423   BUF   144
##  8  2013     3    18     1844   SFO   143
##  9  2013     6    24     1602   AUS   141
## 10  2013     7     7     1746   IAD   141
## # ... with 15,686 more rows
…
