…
## tidytext

With **tidytext**, we can extract the tokens from these three
pages, keeping the city name intact:


{% highlight r %}
tokens <- unnest_tokens(df, word, text)
tokens
{% endhighlight %}



{% highlight text %}
## # A tibble: 29,775 x 2
##     city    word
##    <chr>   <chr>
##  1 Lagos   lagos
##  2 Lagos ˈleɪɡɒs
##  3 Lagos      11
##  4 Lagos  yoruba
##  5 Lagos     èkó
##  6 Lagos      is
##  7 Lagos       a
##  8 Lagos    city
##  9 Lagos      in
## 10 Lagos     the
## # ... with 29,765 more rows
…
Two of the city names pop up, but the other words are just
common, boring English terms. We can use a stopword list
to remove these.

## stop words


{% highlight r %}
stop_words
{% endhighlight %}



{% highlight text %}
## # A tibble: 1,149 x 2
##           word lexicon
##          <chr>   <chr>
##  1           a   SMART
##  2         a's   SMART
##  3        able   SMART
##  4       about   SMART
##  5       above   SMART
##  6   according   SMART
##  7 accordingly   SMART
##  8      across   SMART
##  9    actually   SMART
## 10       after   SMART
## # ... with 1,139 more rows
…
{% highlight text %}
## Selecting by n
{% endhighlight %}



{% highlight r %}
custom_stop_words
{% endhighlight %}



{% highlight text %}
## # A tibble: 325 x 2
##     word     n
##    <chr> <int>
##  1     1    16
##  2   100    12
##  3    12    16
##  4    15    12
##  5    16    13
##  6   160   156
##  7  18th    12
##  8  19th    14
##  9  2006    16
## 10  2007    12
## # ... with 315 more rows
…
