…
There are several variables describing the nature of the relationship between co-workers.
We know whether the employees are friends, report to each other, and whether they seek 
each other out for advice.


{% highlight r %}
work_edges
{% endhighlight %}



{% highlight text %}
## # A tibble: 441 x 5
##       id id_out advice friendship reports
##    <int>  <int>  <int>      <int>   <int>
##  1     1      1      0          0       0
##  2     1      2      1          1       1
##  3     1      3      0          0       0
##  4     1      4      1          1       0
##  5     1      5      0          0       0
##  6     1      6      0          0       0
##  7     1      7      0          0       0
##  8     1      8      1          1       0
##  9     1      9      0          0       0
## 10     1     10      0          0       0
## # ... with 431 more rows
…
