…
  wpage$country[i] <- country
}
{% endhighlight %}

Running that takes several minutes and I do not want to ping
the Wikipedia server more than necessary. Here, I will just
load the final results, which I have loaded to the class
website:


{% highlight text %}
## # A tibble: 239 x 6
##                                                                           line
##                                                                          <chr>
##  1 "<th scope=\"row\"><a href=\"/wiki/Shanghai\" title=\"Shanghai\">Shanghai</
##  2 "<th scope=\"row\"><a href=\"/wiki/Karachi\" title=\"Karachi\">Karachi</a><
##  3 "<th scope=\"row\"><a href=\"/wiki/Beijing\" title=\"Beijing\">Beijing</a><
##  4  "<th scope=\"row\"><a href=\"/wiki/Delhi\" title=\"Delhi\">Delhi</a></th>"
##  5  "<th scope=\"row\"><a href=\"/wiki/Lagos\" title=\"Lagos\">Lagos</a></th>"
##  6  "<th scope=\"row\"><a href=\"/wiki/Dhaka\" title=\"Dhaka\">Dhaka</a></th>"
##  7 "<th scope=\"row\"><a href=\"/wiki/Guangzhou\" title=\"Guangzhou\">Guangzho
##  8 "<th scope=\"row\"><a href=\"/wiki/Istanbul\" title=\"Istanbul\">Istanbul</
##  9  "<th scope=\"row\"><a href=\"/wiki/Tokyo\" title=\"Tokyo\">Tokyo</a></th>"
## 10 "<th scope=\"row\"><a href=\"/wiki/Mumbai\" title=\"Mumbai\">Mumbai</a></th
## # ... with 229 more rows, and 5 more variables: city <chr>, link <chr>,
## #   lat <dbl>, lon <dbl>, country <chr>
…
<img src="../assets/2017-11-02-class19/unnamed-chunk-22-1.png" title="plot of chunk unnamed-chunk-22" alt="plot of chunk unnamed-chunk-22" width="100%" />

Or, simply tabulate by country:


{% highlight r %}
count(wpage, country, sort = TRUE)
{% endhighlight %}



{% highlight text %}
## # A tibble: 69 x 2
##                       country     n
##                         <chr> <int>
##  1                       <NA>    69
##  2                      China    21
##  3                      India    16
##  4 People's Republic of China    10
##  5                   Pakistan     9
##  6                     Russia     7
##  7                     Brazil     6
##  8                South Korea     5
##  9                   Colombia     4
## 10                    Germany     4
## # ... with 59 more rows
…
The six tables represent the six regions that the cities are broken
up into. Let's take the second element and convert it into a **dplyr**
data tibble:


{% highlight r %}
as_data_frame(tabs[[2]])
{% endhighlight %}



{% highlight text %}
## # A tibble: 49 x 16
##       Country      City             Jan            Feb            Mar
##         <chr>     <chr>           <chr>          <chr>          <chr>
##  1 Azerbaijan      Baku   "4.4\n(39.9)"  "4.2\n(39.6)"  "7.0\n(44.6)"
##  2 Bangladesh     Dhaka  "19.1\n(66.4)" "21.8\n(71.2)" "26.5\n(79.7)"
##  3      China   Beijing  "−3.1\n(26.4)"  "0.3\n(32.5)"  "6.7\n(44.1)"
##  4      China Chongqing   "8.0\n(46.4)" "10.1\n(50.2)" "14.0\n(57.2)"
##  5      China     Lhasa  "−2.1\n(28.2)"  "1.1\n(34.0)"  "4.6\n(40.3)"
##  6      China  Shanghai   "4.6\n(40.3)"  "6.1\n(43.0)"  "9.6\n(49.3)"
##  7      China    Ürümqi "−12.1\n(10.2)" "−9.3\n(15.3)" "−0.5\n(31.1)"
##  8    Georgia    Batumi       "6\n(43)"      "7\n(45)"      "8\n(46)"
##  9    Georgia   Tbilisi   "1.2\n(34.2)"  "2.7\n(36.9)"  "6.6\n(43.9)"
## 10  Hong Kong Hong Kong  "16.3\n(61.3)" "16.8\n(62.2)" "19.1\n(66.4)"
## # ... with 39 more rows, and 11 more variables: Apr <chr>, May <chr>,
## #   Jun <chr>, Jul <chr>, Aug <chr>, Sep <chr>, Oct <chr>, Nov <chr>,
## #   Dec <chr>, Year <chr>, Ref. <chr>
…
{% highlight r %}
hrefFun <- function(x){
  res <- xpathSApply(x,'./a/@href')[1]
  ifelse(!is.null(res), res, NA_character_)
}

tabs <- readHTMLTable(readLines(url), elFun = hrefFun, stringsAsFactors = FALSE)
as_data_frame(tabs[[2]])
{% endhighlight %}



{% highlight text %}
## # A tibble: 49 x 16
##                    Country                   City   Jan   Feb   Mar   Apr
##                      <chr>                  <chr> <chr> <chr> <chr> <chr>
##  1        /wiki/Azerbaijan             /wiki/Baku  <NA>  <NA>  <NA>  <NA>
##  2        /wiki/Bangladesh            /wiki/Dhaka  <NA>  <NA>  <NA>  <NA>
##  3             /wiki/China          /wiki/Beijing  <NA>  <NA>  <NA>  <NA>
##  4             /wiki/China        /wiki/Chongqing  <NA>  <NA>  <NA>  <NA>
##  5             /wiki/China            /wiki/Lhasa  <NA>  <NA>  <NA>  <NA>
##  6             /wiki/China         /wiki/Shanghai  <NA>  <NA>  <NA>  <NA>
##  7             /wiki/China /wiki/%C3%9Cr%C3%BCmqi  <NA>  <NA>  <NA>  <NA>
##  8 /wiki/Georgia_(country)           /wiki/Batumi  <NA>  <NA>  <NA>  <NA>
##  9 /wiki/Georgia_(country)          /wiki/Tbilisi  <NA>  <NA>  <NA>  <NA>
## 10         /wiki/Hong_Kong        /wiki/Hong_Kong  <NA>  <NA>  <NA>  <NA>
## # ... with 39 more rows, and 10 more variables: May <chr>, Jun <chr>,
## #   Jul <chr>, Aug <chr>, Sep <chr>, Oct <chr>, Nov <chr>, Dec <chr>,
## #   Year <chr>, Ref. <chr>
…
